{
  "entry": {
    "main": [
      "./scripts/main.ts",
      "./styles/main.scss"
    ],
    "customizer": [
      "./scripts/customizer.js"
    ],
    "admin-style": [
      "./styles/admin-style.scss"
    ]
  },
  "publicPath": "/berggrunn/app/themes/berggrunn",
  "devUrl": "http://localhost/berggrunn",
  "proxyUrl": "http://localhost:3000",
  "cacheBusting": "[name]_[hash:8]",
  "watch": [
    "app/**/*.php",
    "config/**/*.php",
    "resources/views/**/*.php"
  ]
}
